{
  "version": 2,
  "exports": {
    "Core/1.0.0": {
      "type": "project",
      "framework": ".NETFramework,Version=v4.5.2",
      "compile": {
        "bin/Debug/Core.dll": {}
      },
      "runtime": {
        "../packages/AsyncPoco.1.2.0/lib/net45/AsyncPoco.dll": {},
        "../packages/AutoMapper.5.2.0/lib/net45/AutoMapper.dll": {},
        "bin/Debug/Core.dll": {}
      },
      "contentFiles": {
        "bin/Debug/Core.pdb": {
          "buildAction": "None",
          "codeLanguage": "any",
          "copyToOutput": true
        }
      }
    }
  }
}